 employee_id,first_name,last_name,salary,joining_date,department         
 1,Monika,Arora,100000,2014-02-20,HR
 2,Niharika,Verma,80000,2014-06-11,Admin
 3,Vishal,Singhal,300000,2014-02-20,HR
 4,Amitabh,Singh,500000,2014-02-20,Admin
 5,Vivek,Bhati,500000,2014-06-11,Admin
 6,Vipul,Diwan,200000,2014-06-11,Account
 7,Satish,Kumar,75000,2014-01-20,Account
 8,Geetika,Chauhan,90000,2014-04-11,Admin
 9,Manish,Rana,95000,2014-04-11,Admin
 10,vikas,mishra,100000,2014-04-11,Admin